{
    "type": "minecraft:block",
    "pools": [
      {
        "rolls": 1,
        "entries": [
          {
            "type": "minecraft:item",
            "name": "defuse:defuse_crystal"
          }
        ],
        "conditions": [
          {
            "condition": "minecraft:survives_explosion"
          }
        ]
      }
    ]
  }